C:\Users\LENOVO\Documents\Development\Activity\spring-boot\src\main\java\com\example\springboot\repository\EmployeeRepository.java
C:\Users\LENOVO\Documents\Development\Activity\spring-boot\src\main\java\com\example\springboot\service\EmployeeService.java
C:\Users\LENOVO\Documents\Development\Activity\spring-boot\src\main\java\com\example\springboot\service\impl\IEmployeeService.java
C:\Users\LENOVO\Documents\Development\Activity\spring-boot\src\main\java\com\example\springboot\Application.java
C:\Users\LENOVO\Documents\Development\Activity\spring-boot\src\main\java\com\example\springboot\model\Employee.java
